// Jest Snapshot v1, https://goo.gl/fbAQLP

exports[`<Card /> render default 1`] = `
<DocumentFragment>
  <div
    class="chip"
  >
    <div
      class="avatar"
    >
      <span>
        t
      </span>
    </div>
    <div
      class="chip-title"
    >
      title
    </div>
    <div
      class="chip-separator"
    >
       |
    </div>
    <div
      class="chip-body"
    >
      body
    </div>
  </div>
</DocumentFragment>
`;
