<?xml version="1.0"?>
<svg xmlns:rdf="http://www.w3.org/1999/02/22-rdf-syntax-ns#" xmlns="http://www.w3.org/2000/svg" xmlns:cc="http://web.resource.org/cc/" xmlns:xlink="http://www.w3.org/1999/xlink" xmlns:dc="http://purl.org/dc/elements/1.1/" height="595.28" width="850.39" version="1.1" y="0px" x="0px" viewBox="0, 0, 850.394, 595.276">
 <g id="battistrada" stroke="#000">
  <path d="m362.39 475.17c0.48-1.01 26.09-3 37.19-5.91 11.09-2.9 18.34-8.73 25.92-15.23 7.58-6.49 11.68-30.77 11.68-30.77l-13.74-51.56s-59-36.55-60.67-35.52c-1.68 1.02-32.32 14.08-32.32 14.08s31.36 126.09 31.94 124.91z" stroke-opacity="0" fill="#2B2B2B"/>
  <path d="m184.88 436.45c0.51 0.11 15.55 0.77 30.67-0.3s22.72-7.58 28.61-13.08c5.89-5.51 9.36-22.45 9.36-22.45l0.29-28.56-62.04-53.35-33.23 25.99 26.34 91.75z" stroke-opacity="0" fill="#2B2B2B"/>
  <path d="m498.95 380.46s80.05-27.31 80.34-26.57c0.28 0.75 79.65-16.33 80.39-16.16 0.75 0.17 10.34 4.57 12.34 15.42s-11.94 35.82-11.94 35.82l-175.4 42.26 14.27-50.77z" stroke-opacity="0" fill="#aaa"/>
  <path d="m474.61 238.52c-0.69-0.54 96.92 34.27 97.68 34.65" fill="#C22BFF"/>
  <path d="m568.01 411.01l15.23 10.09 53.44-11.8s11.38-7.39 11.61-7.96 5.79-11.31 5.79-11.31-86.64 22.01-86.07 20.98z" stroke-opacity="0" fill="#2B2B2B"/>
 </g>
 <g id="accessori">
  <path d="m292.61 265.71l0.59 7.11 0.48 14.21 0.61 7.17c0.08 0.99 1.21 1.11 2.52 0.26 1.3-0.85 2.29-2.35 2.21-3.35l-0.6-7.02-0.48-14.35-0.6-7.11c-0.08-0.99-1.21-1.11-2.51-0.26-1.31 0.85-2.3 2.35-2.22 3.34"/>
  <path d="m289.24 264.35l-2.95 0.07-5.63 0.74-5.14 1.44-4.61 2.12-4.08 2.76-3.48 3.39-2.63 3.83-1.53 3.88-0.42 3.66 0.61 3.36 1.57 3.02 2.54 2.62 3.51 2.13 4.51 1.55 4.09 0.74 3.05 0.25 3.3 0.04 3.57-0.17 1.91-0.17c1.11-0.1 2.57-1.24 3.28-2.54 0.7-1.31 0.38-2.29-0.73-2.19l-1.76 0.16-3.38 0.17-3.11-0.04-2.83-0.22-3.77-0.65-4.18-1.4-3.21-1.89-2.28-2.26-1.39-2.49-0.57-2.57 0.14-2.46 0.69-2.24 1.19-2.05 1.87-2.03 2.75-1.99 3.65-1.74 4.47-1.31 5.26-0.7 2.96-0.08c1.06-0.03 2.54-1.11 3.31-2.42 0.76-1.31 0.52-2.35-0.55-2.32"/>
  <path d="m294.87 415.22c7.2 61.56 85.99 82.88 102.13 26.52 19.26-67.26-38.81-111.76-74.84-86.74-34.83 24.2-27.29 60.22-27.29 60.22z" fill="#404040"/>
  <path d="m292.51 416.82l0.39 2.86 1.1 5.6 1.48 5.36 1.84 5.11 2.18 4.83 2.5 4.57 2.78 4.28 3.04 4 3.28 3.71 3.49 3.41 3.68 3.11 3.84 2.8 6.01 3.59 8.36 3.64 8.61 2.29 8.66 0.86 6.47-0.33 4.28-0.72 4.17-1.12 4.1-1.56 4.01-2.02 3.9-2.51 3.75-3.02 3.51-3.52 3.2-4 2.83-4.4 2.42-4.77 2.01-5.16 0.87-2.78 0.03-0.09 0.84-3.14 1.39-6.28 0.97-6.16 0.54-5.98 0.15-5.82-0.24-5.63-0.59-5.44-0.93-5.24-1.25-5.04-1.55-4.82-1.84-4.61-2.1-4.37-2.35-4.14-2.57-3.89-4.25-5.36-6.28-6.22-6.88-5.1-7.33-3.91-7.64-2.65-7.82-1.32-7.89 0.1-5.94 1.07-3.98 1.24-3.91 1.66-3.85 2.12-2.01 1.31c-0.07 0.04-0.15 0.09-0.22 0.15l-3.14 2.3-5.91 5.04-5.14 5.37-4.28 5.51-3.45 5.51-2.69 5.42-2.02 5.24-1.45 5-0.98 4.69-0.58 4.34-0.27 3.92-0.04 3.43 0.12 2.89 0.2 2.28 0.22 1.6 0.14 0.85 0.02 0.13c0.19 0.93 1.39 0.93 2.68 0.01 1.3-0.93 2.2-2.43 2.02-3.36l-0.01-0.07-0.13-0.76-0.2-1.5-0.2-2.15-0.12-2.73 0.04-3.25 0.24-3.68 0.53-4.04 0.89-4.32 1.29-4.52 1.75-4.63 2.28-4.67 2.84-4.65 3.5-4.59 4.24-4.52 5.24-4.51 3.15-2.31-0.22 0.15 1.4-0.93 3.14-1.77 3.3-1.44 3.38-1.08 5.33-1.01 7.41-0.13 7.48 1.23 7.39 2.54 7.12 3.79 6.72 4.96 6.17 6.08 4.16 5.25 2.52 3.8 2.29 4.04 2.06 4.27 1.79 4.48 1.52 4.69 1.22 4.9 0.9 5.08 0.58 5.26 0.23 5.43-0.13 5.59-0.51 5.75-0.92 5.88-1.33 6.06-0.85 3.13 0.03-0.09-0.73 2.39-1.73 4.51-1.97 3.99-2.18 3.5-2.37 3.05-2.57 2.66-2.8 2.33-3.06 2.02-3.31 1.7-3.54 1.38-3.73 1.02-3.85 0.67-6.02 0.34-8.3-0.8-8.33-2.19-8.18-3.55-5.89-3.51-3.75-2.73-3.6-3.03-3.42-3.33-3.21-3.63-2.97-3.9-2.72-4.18-2.43-4.45-2.13-4.71-1.8-4.96-1.45-5.21-1.07-5.46-0.39-2.86c-0.13-0.96-1.29-1.02-2.59-0.14-1.31 0.89-2.26 2.39-2.13 3.35"/>
  <path d="m142.76 388.31c5.45 47.95 65 64.56 77.2 20.66 14.56-52.38-29.34-87.05-56.57-67.55-26.33 18.84-20.63 46.89-20.63 46.89z" fill="#404040"/>
  <path d="m140.4 389.92l0.3 2.22 0.82 4.37 1.13 4.2 1.4 3.99 2.56 5.58 4.2 6.68 4.97 5.8 5.57 4.86 6.04 3.88 6.36 2.86 6.54 1.79 6.59 0.68 6.54-0.49 6.39-1.75 4.75-2.28 3.16-2.07 2.96-2.45 2.77-2.85 2.51-3.21 2.19-3.52 1.87-3.8 1.55-4.07 0.67-2.2c0.01-0.04 0.02-0.09 0.03-0.13l1.2-4.85 1.46-9.58 0.23-9.11-0.88-8.52-1.9-7.88-2.77-7.2-3.56-6.47-4.21-5.7-4.78-4.87-5.22-3.99-5.56-3.06-5.81-2.08-5.95-1.04-6.03 0.07-6.04 1.27-6.01 2.61-3.18 1.99c-0.1 0.07-0.21 0.14-0.32 0.22l-2.38 1.8-4.55 3.99-3.99 4.29-3.32 4.39-2.66 4.38-2.07 4.29-1.55 4.13-1.12 3.94-0.74 3.69-0.45 3.4-0.2 3.08-0.03 2.69 0.09 2.27 0.15 1.79 0.16 1.25 0.11 0.67 0.02 0.11c0.18 0.93 1.38 0.94 2.68 0.02 1.29-0.92 2.2-2.42 2.02-3.36l-0.01-0.05-0.09-0.58-0.15-1.15-0.15-1.67-0.09-2.11 0.02-2.51 0.19-2.85 0.39-3.12 0.66-3.33 0.97-3.48 1.3-3.55 1.68-3.56 2.09-3.54 2.56-3.48 3.11-3.42 3.87-3.44 2.38-1.79-0.32 0.23 2.02-1.36 4.86-2.22 5.29-1.18 5.53-0.11 5.61 0.95 5.55 1.96 5.37 2.94 5.06 3.85 4.64 4.71 4.1 5.51 3.46 6.26 2.7 6.96 1.84 7.58 0.87 8.15-0.19 8.66-1.38 9.17-1.2 4.86 0.04-0.13-0.55 1.83-1.28 3.45-1.45 3.04-1.58 2.63-1.7 2.27-1.83 1.97-1.99 1.72-2.1 1.46-3.64 1.84-5.56 1.6-6 0.49-6.22-0.61-6.27-1.7-6.14-2.74-5.86-3.74-5.42-4.71-4.83-5.61-4.1-6.5-2.5-5.42-1.36-3.85-1.08-4.04-0.81-4.24-0.3-2.23c-0.12-0.96-1.28-1.03-2.59-0.15-1.3 0.89-2.25 2.39-2.13 3.36"/>
  <path d="m366.11 387.78c10.32 13.46 10.32 35.28 0 48.74-10.33 13.46-27.07 13.46-37.4 0s-10.33-35.28 0-48.74 27.07-13.46 37.4 0" fill="#aaa"/>
  <path d="m363.9 389.8l1.81 2.61 2.85 5.63 1.88 6.08 0.93 6.35-0.01 6.41-0.95 6.25-1.85 5.85-2.69 5.2-1.48 2.06 0.33-0.42-2.01 2.36-3.74 3.13-3.82 1.87-4.26 0.97-4.59-0.06-4.69-1.23-4.56-2.44-4.25-3.69-1.93-2.29 0.05 0.06-1.82-2.61-2.84-5.63-1.88-6.08-0.94-6.35 0.02-6.41 0.95-6.25 1.85-5.85 2.68-5.2 1.49-2.06-0.33 0.42 2.01-2.36 3.74-3.13 3.82-1.87 4.26-0.97 4.59 0.06 4.69 1.23 4.56 2.45 4.25 3.68 1.92 2.29c0.54 0.63 1.94 0.21 3.14-0.93 1.19-1.15 1.73-2.59 1.19-3.23l-2.09-2.45-4.54-3.88-4.97-2.6-5.3-1.3-5.55 0.07-5.73 1.55-5.71 3.18-5.05 4.44-2.01 2.37c-0.12 0.14-0.23 0.28-0.33 0.42l-2.14 3.17-3.13 6.26-2.02 6.57-0.98 6.77 0.01 6.8 1 6.67 2 6.36 2.96 5.82 1.81 2.62c0.02 0.02 0.03 0.04 0.05 0.06l2.09 2.45 4.54 3.88 4.97 2.6 5.3 1.3 5.55-0.07 5.73-1.55 5.71-3.18 5.05-4.44 2.01-2.37c0.12-0.14 0.22-0.28 0.33-0.42l2.14-3.17 3.12-6.26 2.02-6.57 0.99-6.77-0.01-6.8-1.01-6.67-1.99-6.36-2.96-5.82-1.81-2.62c-0.48-0.69-1.86-0.34-3.08 0.77-1.22 1.12-1.82 2.58-1.34 3.27"/>
  <path d="m433.16 426.31l-0.15 2.31-0.54 4.28-0.82 3.93-1.06 3.61-1.29 3.29-1.49 2.99-2.59 4.01-3.97 4.45-4.43 3.59-5.02 3.03-5.54 2.55-5.91 2.05-6.1 1.6-6.12 1.2-5.99 0.86-5.69 0.6-5.25 0.43-4.68 0.34-3.98 0.33-1.71 0.2c-1.12 0.12-2.58 1.28-3.26 2.58-0.68 1.31-0.33 2.26 0.79 2.14l1.61-0.18 3.94-0.33 4.71-0.34 5.34-0.44 5.84-0.63 6.19-0.9 6.42-1.26 6.53-1.73 6.53-2.31 6.44-3.03 6.22-3.91 5.79-4.9 4.95-5.76 3.08-4.87 1.74-3.57 1.46-3.78 1.17-4 0.86-4.26 0.56-4.48 0.16-2.31c0.08-1.09-0.92-1.39-2.23-0.67-1.31 0.73-2.43 2.2-2.51 3.29"/>
  <path d="m197.76 364.78c8.2 10.7 8.2 28.04 0 38.73-8.21 10.7-21.51 10.7-29.72 0-8.2-10.69-8.2-28.03 0-38.73 8.21-10.7 21.51-10.7 29.72 0" fill="#aaa"/>
  <path d="m195.55 366.8l1.44 2.08 2.25 4.45 1.49 4.8 0.73 5.01-0.02 5.05-0.74 4.92-1.46 4.57-2.09 4.02-1.11 1.54 0.33-0.43-1.6 1.88-2.83 2.35-2.85 1.35-3.23 0.71-3.55-0.06-3.66-0.97-3.59-1.93-3.34-2.91-1.51-1.79 0.04 0.05-1.44-2.08-2.25-4.45-1.48-4.8-0.74-5.01 0.02-5.05 0.75-4.92 1.45-4.58 2.09-4.01 1.11-1.53-0.33 0.42 1.6-1.88 2.84-2.35 2.84-1.35 3.23-0.71 3.55 0.06 3.66 0.97 3.59 1.93 3.34 2.91 1.52 1.8c0.53 0.63 1.94 0.21 3.13-0.93 1.2-1.15 1.73-2.59 1.19-3.23l-1.68-1.96-3.63-3.11-4-2.08-4.27-1.04-4.51 0.07-4.7 1.29-4.74 2.66-4.14 3.66-1.6 1.89c-0.11 0.14-0.23 0.28-0.33 0.42l-1.77 2.63-2.53 5.08-1.62 5.3-0.79 5.43 0.02 5.45 0.8 5.33 1.6 5.08 2.36 4.65 1.45 2.08c0.01 0.02 0.02 0.04 0.04 0.06l1.68 1.96 3.63 3.11 4 2.08 4.27 1.04 4.51-0.07 4.7-1.29 4.74-2.66 4.14-3.66 1.6-1.88c0.12-0.14 0.23-0.29 0.33-0.43l1.77-2.63 2.53-5.08 1.62-5.3 0.79-5.43-0.01-5.45-0.81-5.34-1.6-5.07-2.36-4.65-1.44-2.08c-0.48-0.69-1.86-0.34-3.08 0.77-1.22 1.12-1.82 2.58-1.34 3.27"/>
  <path d="m250.12 376.18l0.48 4.43 0.51 8.28-0.08 7.55-0.67 6.83-1.26 6.09-1.8 5.33-2.31 4.53-2.74 3.69-3.11 2.96-3.64 2.46-4.38 2.07-5.19 1.65-5.98 1.15-6.73 0.61-7.43 0.03-8.13-0.53-4.31-0.47c-0.97-0.11-2.47 0.86-3.34 2.17-0.87 1.3-0.79 2.45 0.19 2.55l4.43 0.49 8.33 0.54 7.72-0.05 7.13-0.67 6.58-1.3 6.08-2.02 5.63-2.82 5.11-3.68 4.37-4.43 3.52-4.98 2.69-5.44 1.98-5.94 1.31-6.51 0.69-7.12 0.08-7.76-0.53-8.4-0.48-4.43c-0.1-0.99-1.25-1.08-2.55-0.21-1.31 0.87-2.28 2.37-2.17 3.35"/>
  <path stroke="#000" d="m331.22 408.39c1.19 1.24 1.19 3.25 0 4.49-1.18 1.23-3.09 1.23-4.28 0-1.18-1.24-1.18-3.25 0-4.49 1.19-1.23 3.1-1.23 4.28 0"/>
  <path stroke="#000" d="m335.17 425.65c1.18 1.23 1.18 3.24 0 4.48s-3.1 1.24-4.28 0-1.18-3.25 0-4.48c1.18-1.24 3.1-1.24 4.28 0"/>
  <path stroke="#000" d="m350.17 434.65c1.18 1.23 1.18 3.24 0 4.48s-3.1 1.24-4.28 0-1.18-3.25 0-4.48c1.18-1.24 3.1-1.24 4.28 0"/>
  <path stroke="#000" d="m335.17 392.65c1.18 1.23 1.18 3.24 0 4.48s-3.1 1.24-4.28 0-1.18-3.25 0-4.48c1.18-1.24 3.1-1.24 4.28 0"/>
  <path stroke="#000" d="m349.17 384.65c1.18 1.23 1.18 3.24 0 4.48s-3.1 1.24-4.28 0-1.18-3.25 0-4.48c1.18-1.24 3.1-1.24 4.28 0"/>
  <path stroke="#000" d="m364.17 427.65c1.18 1.23 1.18 3.24 0 4.48s-3.1 1.24-4.28 0-1.18-3.25 0-4.48c1.18-1.24 3.1-1.24 4.28 0"/>
  <path stroke="#000" d="m368.17 409.65c1.18 1.23 1.18 3.24 0 4.48s-3.1 1.24-4.28 0-1.18-3.25 0-4.48c1.18-1.24 3.1-1.24 4.28 0"/>
  <path stroke="#000" d="m364.17 393.65c1.18 1.23 1.18 3.24 0 4.48s-3.1 1.24-4.28 0-1.18-3.25 0-4.48c1.18-1.24 3.1-1.24 4.28 0"/>
  <path stroke="#000" d="m185.17 401.69c0.95 1 0.95 2.61 0 3.61s-2.49 1-3.44 0-0.95-2.61 0-3.61 2.49-1 3.44 0"/>
  <path stroke="#000" d="m195.33 396.69c0.95 1 0.95 2.61 0 3.61s-2.49 1-3.45 0c-0.95-1-0.95-2.61 0-3.61 0.96-1 2.5-1 3.45 0"/>
  <path stroke="#000" d="m198.78 383.93c0.96 0.99 0.96 2.61 0 3.6-0.95 1-2.49 1-3.44 0-0.95-0.99-0.95-2.61 0-3.6 0.95-1 2.49-1 3.44 0"/>
  <path stroke="#000" d="m195.5 370.23c0.95 1 0.95 2.61 0 3.61-0.96 1-2.5 1-3.45 0s-0.95-2.61 0-3.61 2.49-1 3.45 0"/>
  <path stroke="#000" d="m185.33 361.69c0.95 1 0.95 2.61 0 3.61s-2.49 1-3.45 0c-0.95-1-0.95-2.61 0-3.61 0.96-1 2.5-1 3.45 0"/>
  <path stroke="#000" d="m173.33 394.69c0.95 1 0.95 2.61 0 3.61s-2.49 1-3.45 0c-0.95-1-0.95-2.61 0-3.61 0.96-1 2.5-1 3.45 0"/>
  <path stroke="#000" d="m170.33 380.69c0.95 1 0.95 2.61 0 3.61s-2.49 1-3.45 0c-0.95-1-0.95-2.61 0-3.61 0.96-1 2.5-1 3.45 0"/>
  <path stroke="#000" d="m173.33 368.69c0.95 1 0.95 2.61 0 3.61s-2.49 1-3.45 0c-0.95-1-0.95-2.61 0-3.61 0.96-1 2.5-1 3.45 0"/>
  <path d="m501.97 390.84l9.48-3.16 19.15-6.1 19.4-5.8 19.6-5.45 19.73-5.07 19.83-4.64 19.86-4.18 19.83-3.68 9.87-1.63c1.16-0.19 2.6-1.4 3.22-2.69 0.63-1.3 0.2-2.2-0.95-2l-9.96 1.64-19.94 3.7-19.96 4.2-19.93 4.67-19.84 5.1-19.69 5.48-19.49 5.83-19.23 6.12-9.48 3.16c-1.24 0.42-2.59 1.76-3 3s0.26 1.92 1.5 1.5"/>
  <path d="m502.54 401.75l9.48-3.16 19.15-6.1 19.4-5.8 19.59-5.45 19.74-5.07 19.83-4.64 19.86-4.18 19.83-3.68 9.88-1.63c1.15-0.19 2.59-1.4 3.21-2.7 0.63-1.29 0.2-2.19-0.95-2l-9.96 1.65-19.94 3.7-19.96 4.2-19.93 4.67-19.83 5.1-19.7 5.48-19.49 5.82-19.23 6.13-9.48 3.16c-1.24 0.41-2.58 1.76-3 3-0.41 1.24 0.26 1.91 1.5 1.5"/>
  <path d="m502.14 412.03l9.48-3.15 19.16-6.11 19.39-5.79 19.6-5.46 19.73-5.07 19.83-4.64 19.86-4.18 19.83-3.68 9.88-1.63c1.15-0.19 2.59-1.4 3.21-2.69 0.63-1.3 0.2-2.19-0.95-2l-9.96 1.64-19.94 3.7-19.96 4.21-19.92 4.66-19.84 5.1-19.7 5.48-19.49 5.83-19.23 6.12-9.48 3.16c-1.24 0.42-2.58 1.76-3 3-0.41 1.25 0.26 1.92 1.5 1.5"/>
  <path d="m498.6 422.66l9.48-3.16 19.16-6.1 19.39-5.8 19.6-5.45 19.73-5.07 19.83-4.64 19.86-4.19 19.83-3.67 9.88-1.64c1.15-0.19 2.59-1.39 3.21-2.69 0.63-1.29 0.2-2.19-0.95-2l-9.96 1.65-19.94 3.7-19.96 4.2-19.92 4.67-19.84 5.09-19.7 5.49-19.49 5.82-19.23 6.13-9.48 3.16c-1.24 0.41-2.58 1.76-3 3-0.41 1.24 0.26 1.91 1.5 1.5"/>
 </g>
 <g id="Layer 1">
  <path d="m119.01 318.57c-0.52-20.69-31.167-30.28 2.74-47.49 1.15-0.58-2.74 47.49-2.74 47.49z" fill="#FF2B2B"/>
  <path d="m121.37 317.05l-0.13-1.91-0.75-3.79-1.27-3.56-1.62-3.31-2.78-4.6-3.64-5.65-2.05-3.97-0.77-2.51-0.17-2.4 0.5-2.2 1.11-1.91 1.77-1.82 2.87-2.21 4.39-2.68 2.72-1.43-1.89 0.13 0.09 0.08-0.16 0.39-0.01 1.73-0.08 2.62-0.15 3.29-0.21 3.8-0.4 6.34-0.62 8.9-0.61 8.36-0.41 5.24-0.21 2.73-0.15 1.97-0.09 1.04-0.01 0.14c-0.09 1.1 0.9 1.41 2.2 0.7 1.31-0.71 2.44-2.18 2.53-3.28l0.01-0.14 0.09-1.05 0.15-1.97 0.22-2.74 0.4-5.24 0.62-8.38 0.62-8.92 0.4-6.37 0.21-3.83 0.15-3.34 0.09-2.72-0.02-2.03-0.37-1.53-0.09-0.08c-0.38-0.35-1.09-0.3-1.89 0.13l-3.27 1.75-5.45 3.44-4.36 3.64-3.13 3.81-1.73 3.56-0.57 3.16 0.27 2.89 0.89 2.8 2.12 4.1 3.62 5.61 2.71 4.47 1.55 3.14 1.19 3.27 0.7 3.48 0.14 1.9c0.07 1.01 1.19 1.14 2.5 0.3 1.3-0.84 2.3-2.34 2.23-3.34" fill="#900"/>
  <path stroke="#000A27" d="m657.82 274.9c-23.13 7.48-174.44 22.94-176.27 24.38-1.82 1.45-55.37 73.75-55.37 73.75l70.5 9.06c53.94-16.83 128.25-41.97 164.09-43.56-32.3-23.31-2.95-63.63-2.95-63.63z" fill="url(#Gradient_1)"/>
  <path d="m304.84 247c64.04-5.54 134.24-4.97 175.41 54.33-32.48 32.37-46.67 75.69 16.9 79.05-1.71 17.06-2.53 39.1-14.9 52.61-18.81-6.28-42.63-3.89-58.7-16.97-2.1-1.71-23.6-45.22-32.36-56.8-16.83-22.25-65.12-21.65-83.21-3.29-6.1 6.2-13.41 20.33-22.44 27.25-16.59-3.41-37.93-12.5-54.98-13.42-19.65-27.36-19.47-49.32-56.14-39.99-13.05 3.69-27.69 18.92-41.5 15.2-23.12-6.23-12.94-69.95-9.88-86.03 57.89-23.33 73.22-65.82 148.02-91.41 32.83-7.83 154.6-50.82 193.77-6.6l-159.99 86.07z" fill="#fff"/>
  <path d="m303.55 249.37l12.07-0.95 24.32-1.17 18.19 0.07 12.01 0.64 11.88 1.2 11.68 1.85 11.44 2.56 11.15 3.36 10.8 4.23 10.4 5.17 9.96 6.19 9.46 7.3 6.73 6.23 4.31 4.54 4.16 4.86 4 5.19 1.93 2.71 1.09-3.03-2.99 3.07-5.79 6.47-5.28 6.71-4.64 6.81-3.88 6.83-3.03 6.77-2.08 6.62-1.03 6.37 0.11 6.04 1.33 5.62 1.86 3.91 1.67 2.44 2.01 2.26 2.36 2.11 2.73 1.94 3.1 1.77 3.49 1.58 3.89 1.4 4.29 1.2 4.71 0.99 5.13 0.78 5.57 0.55 2.97 0.19-0.85-1.11-0.31 3.26-0.64 6.78-0.77 6.98-1.04 7-1.46 6.87-1.99 6.53-2.64 5.99-3.34 5.22-1.77 2.05 3.2-1.66-3.58-1.08-7.51-1.71-11.65-1.91-11.61-1.99-7.45-1.82-7.07-2.55-4.96-2.55-3.11-2.07-1.48-1.14 0.1 0.09-0.26-0.28-0.75-1.15-1.18-2.02-1.54-2.76-1.83-3.36-2.07-3.86-3.47-6.49-5.03-9.37-5.16-9.4-3.73-6.56-2.33-3.94-2.16-3.46-1.93-2.89-0.87-1.2c-0.01-0.01-0.02-0.03-0.03-0.04l-1.67-2.02-3.91-3.7-4.53-3.19-5.04-2.65-5.47-2.13-5.8-1.62-6.04-1.12-6.2-0.62-6.27-0.13-6.25 0.35-6.15 0.82-5.97 1.3-5.72 1.78-5.39 2.26-5.02 2.8-4.59 3.37-2.28 2.09c-0.1 0.09-0.2 0.19-0.3 0.3l-1.16 1.25-2.66 3.26-4.02 5.54-5.58 7.69-4.32 5.18-2.83 2.74-1.29 1.04 2.34-0.9-3.16-0.71-6.58-1.71-10.38-3.07-14.28-4.17-10.59-2.48-6.83-1.04-3.33-0.27 0.67 0.35-1.78-2.55-3.25-4.97-2.91-4.77-2.66-4.57-3.7-6.37-3.6-5.68-2.5-3.36-2.68-2.96-2.93-2.52-3.29-2.04-3.73-1.5-4.25-0.93-4.84-0.3-5.51 0.36-6.25 1.06-3.47 0.82c-0.08 0.01-0.15 0.04-0.23 0.06l-2.47 0.82-5.35 2.4-8.04 4.47-7.86 4.33-4.95 2.15-4.85 1.27-4.78 0.12-2.3-0.46 0.12 0.03-1.06-0.34-1.87-0.87-1.67-1.15-1.52-1.43-2.03-2.67-2.18-4.38-1.64-5.19-1.15-5.86-0.7-6.37-0.32-6.74 0.13-10.45 0.68-10.37 0.66-6.61 0.76-6.2 0.8-5.63 0.78-4.9 0.7-4.01 0.31-1.62-2.86 3.24 5.31-2.24 10.11-4.87 9.4-5.29 8.77-5.62 12.22-8.87 15.39-12.39 15.39-12.56 12.21-9.23 8.72-5.97 9.45-5.82 10.32-5.63 11.33-5.38 12.52-5.08 6.72-2.39-0.28 0.08 1.6-0.39 3.62-0.94 4.08-1.11 4.52-1.25 4.91-1.38 5.29-1.48 8.57-2.37 12.45-3.32 13.39-3.33 14.07-3.16 14.52-2.83 14.7-2.3 14.64-1.61 14.32-0.73 10.37 0.14 6.68 0.45 6.47 0.77 6.22 1.1 5.94 1.47 5.63 1.85 5.28 2.26 4.91 2.68 4.5 3.12 4.07 3.59 1.84 1.96 2.32-4.1-159.98 86.07c-1.31 0.71-2.45 2.17-2.55 3.28-0.1 1.1 0.87 1.43 2.18 0.73l159.99-86.08c0.41-0.23 0.83-0.54 1.21-0.91 1.18-1.16 1.68-2.6 1.11-3.2l-1.95-2.06-4.21-3.7-4.65-3.21-5.05-2.75-5.43-2.31-5.77-1.89-6.08-1.5-6.36-1.13-6.6-0.78-6.83-0.46-10.57-0.13-14.53 0.75-14.82 1.63-14.86 2.33-14.64 2.85-14.19 3.19-13.46 3.35-12.5 3.33-8.59 2.38-5.29 1.48-4.9 1.37-4.48 1.25-4.03 1.09-3.55 0.92-1.61 0.4c-0.08 0.02-0.18 0.04-0.27 0.08l-6.97 2.5-12.9 5.24-11.76 5.59-10.73 5.87-9.85 6.09-9.13 6.26-12.54 9.49-15.33 12.51-14.96 12.06-11.72 8.53-8.31 5.34-8.92 5.04-9.77 4.72-5.31 2.24-0.12 0.06c-1.29 0.6-2.51 2.03-2.73 3.19l-0.31 1.67-0.72 4.08-0.79 4.97-0.81 5.7-0.77 6.28-0.67 6.73-0.68 10.54-0.13 10.63 0.33 6.91 0.74 6.57 1.2 6.09 1.75 5.45 2.34 4.63 2.19 2.86 1.71 1.58 1.91 1.28 2.08 0.95 1.06 0.34 0.12 0.03 2.9 0.5 5.7-0.26 5.71-1.58 5.61-2.48 7.9-4.35 7.43-4.16 4.71-2.15 2.46-0.82-0.23 0.07 3.2-0.76 5.86-1.01 5.12-0.36 4.48 0.25 3.93 0.83 3.47 1.38 3.09 1.89 2.8 2.39 2.58 2.84 2.43 3.27 3.58 5.63 3.7 6.37 2.67 4.59 2.94 4.82 3.27 5.01 1.79 2.55c0.14 0.2 0.37 0.32 0.67 0.34l3.16 0.26 6.65 1.01 10.48 2.45 14.27 4.16 10.45 3.09 6.65 1.73 3.16 0.7c0.61 0.14 1.5-0.21 2.34-0.9l2.06-1.72 3.62-3.61 4.79-5.77 5.58-7.7 3.66-5.06 2.15-2.68 1.16-1.25-0.3 0.3 1.29-1.26 3.51-2.67 4.22-2.4 4.82-2.05 5.28-1.66 5.62-1.23 5.87-0.8 6.01-0.35 6.05 0.13 6.01 0.59 5.85 1.07 5.62 1.56 5.29 2.05 4.87 2.54 4.36 3.05 3.78 3.57 1.67 2.02-0.03-0.04 0.84 1.15 1.9 2.84 2.14 3.44 2.31 3.91 3.72 6.54 5.16 9.39 5.03 9.37 3.47 6.49 2.08 3.86 1.83 3.38 1.56 2.79 1.23 2.09 0.89 1.33 0.25 0.29c0.03 0.03 0.06 0.06 0.1 0.09l1.58 1.21 3.26 2.16 5.16 2.63 7.28 2.62 7.6 1.85 11.63 1.98 11.51 1.89 7.37 1.68 3.58 1.08c0.82 0.25 2.21-0.48 3.2-1.66l2.61-3.21 3.93-6.33 2.9-6.69 2.11-6.96 1.5-7.13 1.07-7.15 0.77-7.04 0.64-6.77 0.31-3.25c0.07-0.66-0.25-1.07-0.85-1.11l-2.87-0.18-5.45-0.54-5.01-0.75-4.57-0.96-4.16-1.16-3.75-1.34-3.35-1.51-2.97-1.69-2.6-1.83-2.24-1.99-1.89-2.11-1.54-2.22-1.73-3.54-1.27-5.09-0.15-5.42 0.87-5.7 1.81-5.91 2.67-6.06 3.47-6.17 4.19-6.19 4.82-6.15 5.43-6.1 2.99-3.07c1.07-1.09 1.54-2.4 1.09-3.03l-1.97-2.76-4.05-5.25-4.21-4.92-4.38-4.6-6.83-6.32-9.59-7.39-10.1-6.27-10.54-5.23-10.94-4.28-11.29-3.39-11.58-2.59-11.82-1.86-12.01-1.22-12.16-0.65-18.35-0.06-24.42 1.17-12.07 0.96c-1.1 0.09-2.57 1.22-3.28 2.52-0.72 1.31-0.41 2.3 0.69 2.21"/>
  <path d="m308.55 245.46s120.02-18.62 172.24 54.09c33.81-5.73 72.91 2.49 106.32-5.08 23.72-5.38 47.55-13.19 70.63-20.56-32.24-75.58-136.09-34.35-166.84-51.87-4.35-2.48-4.28-7.95-5.43-12.22" fill="#fff"/>
  <path d="m307.39 247.81l0.09-0.01 0.67-0.1 1.31-0.17 1.93-0.24 2.52-0.27 3.06-0.29 3.57-0.29 4.05-0.27 4.5-0.22 4.91-0.17 8.06-0.08 11.86 0.28 12.88 0.9 13.62 1.66 14.09 2.59 14.29 3.68 14.21 4.93 10.43 4.6 6.78 3.54 6.62 3.95 6.41 4.37 6.17 4.81 5.89 5.27 5.58 5.75 5.23 6.25 2.48 3.31c0.2 0.27 0.56 0.38 1.01 0.31l6.4-0.92 12.99-1.01 13.3-0.24 13.54 0.19 13.62 0.28 13.57 0.02 13.41-0.59 13.12-1.56 6.48-1.27c0.03 0 0.06-0.01 0.09-0.02l8.9-2.12 17.86-4.82 17.78-5.33 17.59-5.56 8.7-2.78c1.23-0.4 2.59-1.73 3.02-2.98 0.16-0.47 0.18-0.88 0.04-1.17l-1.56-3.46-3.46-6.47-3.84-5.84-4.2-5.24-4.54-4.66-4.84-4.12-5.12-3.6-5.36-3.12-5.59-2.67-5.79-2.25-5.95-1.87-6.09-1.52-9.33-1.69-12.68-1.33-12.77-0.52-12.62 0.04-12.25 0.34-11.69 0.38-10.88 0.15-7.5-0.18-4.63-0.32-4.32-0.52-3.97-0.75-3.6-1-3.2-1.28-1.41-0.74 0.07 0.04-0.77-0.5-1.14-1.1-1.18-1.98-0.94-3.11-0.67-3.34-0.39-1.69c-0.21-0.9-1.43-0.87-2.72 0.07-1.3 0.95-2.17 2.45-1.96 3.36l0.38 1.61 0.72 3.55 1.11 3.5 1.43 2.31 1.36 1.26 0.77 0.5c0.02 0.02 0.04 0.03 0.06 0.04l1.58 0.82 3.4 1.34 3.77 1.04 4.13 0.77 4.44 0.53 4.76 0.33 7.62 0.18 10.94-0.15 11.66-0.38 12.19-0.33 12.49-0.05 12.6 0.5 12.5 1.31 9.18 1.66 5.98 1.49 5.83 1.82 5.67 2.21 5.47 2.61 5.25 3.04 5.01 3.52 4.73 4.02 4.44 4.55 4.12 5.12 3.77 5.72 3.41 6.37 1.56 3.46 3.06-4.16-8.67 2.78-17.51 5.54-17.64 5.29-17.71 4.78-8.91 2.12 0.1-0.02-6.18 1.22-12.86 1.54-13.26 0.59-13.52-0.02-13.63-0.28-13.63-0.19-13.51 0.25-13.23 1.04-6.4 0.91 1.02 0.32-2.52-3.38-5.31-6.33-5.66-5.82-5.97-5.34-6.25-4.87-6.49-4.42-6.7-3.99-6.88-3.59-10.57-4.66-14.36-4.97-14.44-3.71-14.23-2.61-13.76-1.68-13-0.9-11.97-0.29-8.13 0.09-4.96 0.17-4.55 0.23-4.11 0.27-3.62 0.29-3.11 0.3-2.56 0.28-1.97 0.24-1.36 0.18-0.7 0.1-0.09 0.01c-1.14 0.17-2.59 1.37-3.23 2.66-0.64 1.3-0.23 2.21 0.91 2.04"/>
  <path d="m496.72 382.61l9.53-3.37 19.41-6.54 19.83-6.22 20.15-5.86 20.35-5.44 20.43-4.99 20.38-4.46 20.22-3.9 10-1.72c1.16-0.2 2.59-1.41 3.21-2.7 0.62-1.3 0.19-2.19-0.97-1.99l-10.08 1.73-20.34 3.93-20.49 4.49-20.54 5.01-20.45 5.48-20.27 5.89-19.94 6.26-19.51 6.56-9.52 3.37c-1.26 0.45-2.58 1.81-2.97 3.04-0.38 1.23 0.32 1.87 1.57 1.43"/>
  <path d="m655.82 275.09l-2.24 3.49-4.28 7.85-3.52 8.48-2.39 8.76-0.87 6.65-0.08 4.39 0.39 4.27 0.88 4.16 1.4 4.02 1.96 3.84 2.56 3.64 3.19 3.39 1.87 1.61c0.63 0.54 2.07 0.02 3.22-1.18 1.15-1.19 1.57-2.6 0.94-3.14l-1.75-1.5-3.06-3.23-2.44-3.44-1.87-3.62-1.33-3.77-0.84-3.88-0.37-3.98 0.04-3.99 0.76-6.05 2.14-8.04 3.16-7.73 3.92-7.25 2.25-3.49c0.84-1.31 0.71-2.43-0.3-2.5-1-0.07-2.5 0.93-3.34 2.24"/>
  <path d="m657.58 340.4l1.95 0.84 3.23 1.95 2.49 2.32 1.84 2.63 1.25 2.91 0.71 3.13 0.24 3.31-0.19 3.45-0.99 5.37-2.35 7.19-3.12 6.81-3.51 6.09-1.69 2.53c-0.86 1.31-0.76 2.45 0.22 2.55s2.48-0.88 3.35-2.18l2.01-3.07 3.85-6.76 3.41-7.52 2.51-7.84 1.05-5.85 0.18-3.83-0.29-3.67-0.82-3.47-1.41-3.19-2.05-2.88-2.73-2.5-3.44-2.06-1.96-0.84c-0.8-0.34-2.29 0.4-3.32 1.66-1.04 1.27-1.22 2.57-0.42 2.92"/>
  <path d="m482.97 435l6.09-1.51 11.7-2.92 11.08-2.78 10.48-2.65 9.89-2.52 9.34-2.38 8.79-2.26 8.28-2.14 7.78-2.02 7.3-1.91 6.85-1.79 6.41-1.68 6.01-1.58 5.61-1.47 7.72-2.03 9.13-2.37 7.94-2.02 6.92-1.69 6.06-1.4 5.37-1.11 4.86-0.87 6.71-0.9 4.31-0.38c1.1-0.09 2.57-1.23 3.28-2.53 0.71-1.31 0.39-2.29-0.71-2.2l-4.49 0.39-6.89 0.93-4.98 0.9-5.47 1.13-6.13 1.41-6.96 1.71-7.96 2.02-9.14 2.38-7.73 2.02-5.61 1.48-6 1.58-6.41 1.68-6.85 1.79-7.29 1.9-7.78 2.02-8.27 2.14-8.79 2.26-9.32 2.38-9.89 2.52-10.47 2.64-11.08 2.78-11.69 2.92-6.09 1.51c-1.2 0.3-2.6 1.58-3.13 2.85-0.53 1.28 0.02 2.07 1.22 1.77"/>
  <path d="m652.28 391.76l-0.63 1.67-1.33 2.77-1.46 2.26-1.61 1.89-1.78 1.66-2.05 1.54-3.74 2.26-2.79 1.37c-1.3 0.65-2.48 2.1-2.65 3.24-0.16 1.13 0.76 1.53 2.06 0.88l3.45-1.74 4.69-2.92 2.98-2.35 2.72-2.67 2.38-2.96 1.99-3.19 1.57-3.34 0.62-1.66c0.47-1.26-0.14-1.99-1.36-1.64-1.22 0.36-2.6 1.67-3.06 2.93"/>
  <path d="m600.08 404.87l-0.76 1.73-2.1 3.54-2.81 3.5-3.31 2.88-2.58 1.4-1.83 0.59-2.16 0.32-2.37-0.12-2.57-0.67-2.72-1.33-2.85-2.08-2.94-2.92-1.47-1.78c-0.53-0.64-1.94-0.23-3.13 0.91-1.2 1.15-1.74 2.59-1.21 3.23l1.58 1.89 3.11 3.07 3.1 2.23 3.08 1.45 3.07 0.74 3.07 0.07 3.06-0.56 3.13-1.22 4.31-2.68 4.68-4.35 3.62-4.67 2.5-4.34 0.77-1.73c0.57-1.28 0.08-2.12-1.09-1.87-1.18 0.24-2.6 1.49-3.18 2.77"/>
  <path d="m586.25 422.7l6.16-1.39 12.17-2.93 12.1-2.87 12.19-2.51 6.18-1.03c1.15-0.19 2.59-1.4 3.21-2.7 0.63-1.29 0.2-2.19-0.95-1.99l-6.34 1.05-12.33 2.55-12.11 2.87-12.11 2.91-6.16 1.4c-1.18 0.26-2.6 1.52-3.15 2.8-0.56 1.28-0.04 2.11 1.14 1.84"/>
  <path d="m302.87 246.17c-14.31-12.33-20.3-46-14.51-63.11 28.74-22.18 144.83-40.12 176.26-21.92 10.94 6.34 26.6 43.99 18.96 55.62-16.81 25.58-144.04 25.71-176.52 30.15z" fill="url(#Gradient_2)"/>
  <path d="m304.97 244.03l-1.32-1.22-2.43-2.73-2.24-3.13-2.03-3.5-2.67-5.83-2.81-8.51-1.89-8.95-0.94-8.93-0.05-6.4 0.28-3.99 0.53-3.74 0.78-3.39 0.45-1.47-1.87 2.45 1.41-1.04 2.92-1.86 3.38-1.86 3.89-1.88 6.69-2.79 10.21-3.58 11.4-3.34 12.36-3.05 13.04-2.69 13.46-2.31 13.62-1.85 13.54-1.36 13.18-0.82 12.58-0.24 11.73 0.4 8.07 0.75 4.96 0.71 4.63 0.9 4.23 1.08 3.8 1.28 3.35 1.46 1.47 0.8-0.06-0.04 1.04 0.69 2.06 1.81 2.12 2.42 2.15 2.95 3.18 5.25 3.9 8.07 3.2 8.63 1.74 6.44 0.76 4.09 0.41 3.85 0.01 3.49-0.41 3-0.8 2.3-0.37 0.53 0.34-0.52-0.87 1.18-1.67 1.64-2.14 1.53-2.87 1.65-3.53 1.67-4.11 1.63-4.62 1.54-5.07 1.45-8.34 2-12.21 2.34-13.18 1.99-13.84 1.68-14.18 1.42-14.23 1.19-13.97 1.01-13.41 0.88-12.55 0.77-11.39 0.73-7.61 0.54-4.56 0.37-4.1 0.38-3.61 0.39-1.62 0.21 0.44 0.01-4.19-0.74c-0.94-0.16-2.44 0.75-3.36 2.05-0.91 1.3-0.88 2.49 0.06 2.66l4.19 0.73c0.14 0.03 0.29 0.03 0.45 0.01l1.56-0.2 3.54-0.39 4.06-0.38 4.52-0.36 7.58-0.54 11.39-0.73 12.56-0.78 13.44-0.87 14.01-1.02 14.28-1.2 14.27-1.42 13.95-1.7 13.34-2.02 12.43-2.38 8.55-2.06 5.3-1.52 4.95-1.67 4.56-1.82 4.19-2.02 3.83-2.3 3.45-2.69 2.73-2.87 0.87-1.18c0.12-0.17 0.24-0.35 0.34-0.52l0.92-1.79 1.02-3.19 0.44-3.46-0.03-3.77-0.44-4.04-0.8-4.26-1.79-6.6-3.26-8.79-3.98-8.2-3.26-5.37-2.24-3.06-2.25-2.55-2.23-1.94-1.03-0.68c-0.02-0.02-0.04-0.03-0.06-0.04l-1.6-0.86-3.5-1.52-3.95-1.32-4.35-1.11-4.74-0.92-5.09-0.72-8.22-0.76-11.89-0.4-12.72 0.24-13.32 0.83-13.67 1.38-13.76 1.87-13.61 2.33-13.21 2.74-12.58 3.11-11.7 3.43-10.56 3.72-7.06 2.96-4.28 2.08-3.93 2.18-3.45 2.23-1.41 1.04c-0.89 0.66-1.62 1.6-1.88 2.45l-0.55 1.84-0.85 3.75-0.56 4-0.28 4.25 0.07 6.65 0.97 9.18 1.95 9.16 2.88 8.71 2.75 5.97 2.11 3.62 2.34 3.26 2.53 2.84 1.32 1.22c0.61 0.56 2.04 0.06 3.2-1.13 1.16-1.18 1.61-2.6 1-3.16"/>
  <path d="m612.28 294.52c-7.9 3.96-11.69 15.08-12.28 23.82-1.14 17.01 26.41 19.91 34.49 7.54 11.33-17.37-10.59-43.94-28.21-27.76" fill="#ec0"/>
  <path d="m612.35 292.58l-1.43 0.82-3.26 2.57-2.99 3.36-2.34 3.64-2.42 5.53-1.85 7.44-0.42 3.64c-0.01 0.06-0.01 0.11-0.01 0.16l-0.03 1.55 0.44 3.08 1.04 2.75 1.58 2.36 2 1.97 2.37 1.6 2.67 1.24 2.88 0.88 4.55 0.64 4.72-0.17 3.19-0.58 3.09-0.98 3.01-1.44 2.91-1.98 2.72-2.64 1.37-1.76c0.1-0.14 0.19-0.28 0.27-0.42l0.97-1.66 1.64-3.96 0.83-4.03 0.07-3.89-0.57-3.73-1.12-3.54-1.6-3.3-2.04-3-2.42-2.63-2.75-2.19-3.02-1.68-3.27-1.09-3.49-0.41-3.69 0.38-3.92 1.31-4.13 2.44-2.29 1.85c-1.26 1.05-1.97 2.53-1.6 3.32 0.37 0.78 1.69 0.56 2.95-0.49l1.03-0.94 2.62-1.71 2.87-1.06 3.01-0.37 3.05 0.32 2.96 0.95 2.81 1.53 2.57 2.04 2.28 2.46 1.93 2.79 1.51 3.06 1.04 3.22 0.54 3.28-0.01 3.23-0.52 3.03-1.12 2.9-0.97 1.66 0.28-0.43-0.26 0.47-1.14 1.29-1.65 1.23-2.12 1.07-2.46 0.82-2.63 0.52-4.23 0.19-4.23-0.57-2.64-0.79-2.43-1.11-2.16-1.43-1.81-1.73-1.4-2.03-0.92-2.29-0.41-2.64 0.02-1.56-0.01 0.16 0.33-3.1 1.52-6.49 1.85-4.42 1.37-2.34 1.44-1.84 1.9-1.62 1.43-0.82c1.31-0.76 2.41-2.24 2.45-3.31s-0.99-1.33-2.3-0.58" fill="#FFB412"/>
  <path d="m488.32 315.72c-6 6.09-9.7 16.61-10.97 25.13-3.47 23.37 36.58 21.36 44.2 5.48 9.5-19.8-14.7-47.3-33.13-29.82z" fill="#ec0"/>
  <path d="m487.08 314.84l-1.09 1.19-2.37 3.06-3 5.06-2.99 7.15-1.98 7.17-0.64 3.48c-0.01 0.06-0.02 0.11-0.02 0.17l-0.2 2.11 0.3 4.07 1.22 3.51 2.01 2.88 2.66 2.27 3.2 1.72 3.6 1.17 3.91 0.67 4.1 0.18 4.2-0.29 4.19-0.75 4.09-1.2 3.93-1.67 3.69-2.18 3.41-2.79 2.92-3.45 1.3-2.17c0.07-0.13 0.14-0.26 0.19-0.38l0.79-1.88 1.16-4.25 0.39-4.29-0.32-4.16-0.94-3.99-1.49-3.78-1.96-3.5-2.39-3.17-2.75-2.77-3.07-2.28-3.33-1.72-3.56-1.09-3.76-0.36-3.95 0.48-4.15 1.46-4.33 2.65-2.38 1.99 3.11-0.24-0.1-0.8c-0.12-0.97-1.28-1.04-2.58-0.16-1.31 0.88-2.27 2.38-2.14 3.35l0.1 0.8c0.01 0.13 0.05 0.25 0.1 0.35 0.42 0.75 1.76 0.48 3-0.59l1.11-1.03 2.79-1.88 3.07-1.19 3.25-0.46 3.31 0.28 3.25 0.96 3.12 1.59 2.9 2.14 2.61 2.6 2.27 2.99 1.87 3.3 1.4 3.52 0.88 3.63 0.33 3.66-0.25 3.54-0.89 3.45-0.79 1.87 0.19-0.38-0.32 0.73-1.33 1.83-2.04 1.8-2.71 1.67-3.23 1.41-3.57 1.08-3.78 0.7-3.84 0.28-3.78-0.15-3.61-0.59-3.32-1.06-2.92-1.52-2.4-2-1.8-2.47-1.1-2.95-0.31-3.52 0.2-2.12-0.02 0.17 0.54-3.07 1.73-6.46 2.51-6.17 2.28-4.01 1.69-2.25 1.1-1.2c1.12-1.21 1.47-2.59 0.79-3.08-0.68-0.48-2.14 0.11-3.26 1.33" fill="#FFB412"/>
  <path d="m193.67 237.44c-28.06 51.52 67.68 19.24 71.89 14.56 11.62-12.92 3.18-60.66-22.55-53.29-36.79 9.65-49.34 38.73-49.34 38.73z" fill="url(#Gradient_3)"/>
  <path d="m191.64 237.67l-1.23 2.35-2.03 4.58-1.38 4.2-0.72 3.77-0.08 3.34 0.53 2.9 1.08 2.47 1.58 2.06 2.02 1.68 2.43 1.32 2.77 0.99 3.08 0.7 5.07 0.54 7.47-0.07 8.01-0.84 8.19-1.42 8.09-1.83 7.66-2.09 6.94-2.19 5.9-2.11 3.6-1.46 1.96-0.89 1.57-0.81 1.29-0.81 0.97-0.79c0.25-0.22 0.48-0.47 0.68-0.72l1.03-1.31 2.18-3.89 1.5-4.37 0.88-4.6 0.35-4.84-0.11-5.01-0.58-5.06-1.03-5.01-1.48-4.82-1.92-4.52-2.36-4.09-2.82-3.52-3.26-2.82-3.74-1.99-4.23-1.02-4.76 0.13-2.72 0.58c-0.05 0.02-0.09 0.03-0.14 0.04l-3.38 0.96-6.5 2.28-6.05 2.67-5.55 2.99-5.06 3.24-4.58 3.41-4.1 3.5-3.62 3.5-3.14 3.43-2.69 3.26-2.25 3.03-1.82 2.72-1.43 2.33-1.05 1.88-0.7 1.35-0.36 0.76-0.07 0.16c-0.57 1.29-0.08 2.12 1.1 1.87s2.6-1.49 3.17-2.78l0.25-0.53 0.55-1.08 0.87-1.57 1.2-1.98 1.55-2.32 1.9-2.58 2.27-2.79 2.66-2.92 3.07-3.01 3.5-3.02 3.96-2.98 4.47-2.88 4.99-2.72 5.55-2.47 6.17-2.18 3.38-0.96-0.13 0.04 2-0.49 4.07-0.19 3.78 0.85 3.45 1.8 3.07 2.62 2.68 3.33 2.27 3.9 1.86 4.33 1.43 4.64 0.99 4.8 0.56 4.82 0.13 4.7-0.3 4.42-0.7 3.93-1 3.21-1.23 2.45-1.03 1.31 0.67-0.72 0.45-0.31-0.54 0.37-1.2 0.63-1.69 0.77-3.34 1.36-5.68 2.04-6.73 2.13-7.46 2.04-7.86 1.79-7.93 1.38-7.69 0.81-7.14 0.09-4.81-0.5-2.84-0.63-2.53-0.88-2.18-1.16-1.79-1.43-1.38-1.73-0.94-2.04-0.48-2.36 0.01-2.73 0.55-3.12 1.14-3.58 1.82-4.12 1.23-2.36c0.67-1.3 0.32-2.26-0.81-2.12-1.12 0.12-2.57 1.29-3.25 2.59"/>
  <path stroke="#555" d="m370.16 311.61c5.88-0.89 13.94 2 20.08-0.19 10.49-4.17 4.94-10.87 0.21-12.8-1.9-0.62-22.68-9.29-37.19 9.56-13.41 20.12-34.39 16.99-37.16 16.67-14.72-2.03-25.45-18.73-48.61-10.4 21.48-12.49 41.19 6.11 53.69 3.97 13.2-3.59 4.94-14.79-8.95-17.5-13.97-2.29-45.87 14.94-71.63 9.23-23.22-4.43-39.21-17.65-60.15-14.56 32.81-8.87 53.68 16.39 77.19 5.89 16.04-8.46 3.39-17.48-4.42-14.41-9.79 4.05-11.81 8.84-29 8.99 3.55-0.44 10.45-0.17 15.6-5.12 19.47-17.77 28.68-6.76 54.49 0.65 33.09 8.08 64.42 2.5 61.45-7.4-5.82-12.61-24.9-1.42-30.66 0.96-25.04 10.65-30.19-4.7-47.62-5.01 17.53-1.81 16 5.79 30.45 4.44 17.06-1.59 16.08-15.78 46.55-13.48 20.11 1.15 21.99 9.15 41.72 16.09 6.57 2.4 13.78 1.73 15.57-2.42 1.67-11.09-22.82-2.23-32.92-9.8 15.34 3.98 18.54-4.17 33.04-1.63 17.17 3.51 27.81 14.26 28.02 28.52-0.83 14.46-14.89 25.34-43.31 19.27-44.01-10.34-37.91 2.71-56.56 5.08 14.39-4.18 11.23-12.49 30.12-14.6z" fill="#e00"/>
  <path stroke="#7A7A7A" d="m576.07 287.3s36.71-13.25 26.66-29.07c-11.71-6.19-35.15 0.02-27.79-24.6-8.82 17.13-16.07 15.61-4.92 20.71 0 0 8.49 8.17-7.55 11.31 0 0-12.57 2.11-7.85-16.8 4.73-18.9-9.49-14.03-22.92-14-13.44 0.03-19.18 0.15-19.95-0.91s4.9 6.97 21.09 8.07c16.18 1.1 19.25 10.28 6.28 12.51-6.23 1.86-21.32-6.46-22.55-8.8s-22.41-7.4-28.84-7.26c3.25 2.29 12.07 10.68 10.91 13.6-3.07 6.38 20.2 9.75 26.58 10.51 6.39 0.77 23.29 5.85 13.24 14.51-7.58 5.95-15.97-4.44-15.9-6.91-0.49-0.69-42.12-12.61-53.73-11.71 6.72 2.84 40.4 14.42 38.43 25.21-0.38 5.93 17.34 11.3 29.07 5.92 20.85-8.65 53.29-18.53 38.61-5.01" fill="#e00"/>
  <path d="m299.39 247.64l-3.14 0.68-5.79 1.54-5.05 1.76-4.31 1.95-3.62 2.17-3.04 2.5-2.41 2.96-1.34 3.17 0.02 2.75 1.1 2.24 1.98 1.9 2.81 1.62 3.64 1.35 4.48 1.06 5.3 0.75 6.15 0.39 3.41 0.05c1.04 0.02 2.53-1.03 3.33-2.34 0.33-0.54 0.5-1.07 0.49-1.5l-0.04-1.33-0.28-2.98-0.74-4.78-1.1-6.52-0.49-4.61v-2.72l0.12-1.15c0.11-1.11-0.86-1.45-2.17-0.75-0.53 0.29-1.06 0.71-1.51 1.22l-0.13 0.16c-1.1 1.23-1.39 2.58-0.67 3.02s2.2-0.2 3.29-1.44l0.14-0.16-3.68 0.47-0.13 1.49 0.01 3 0.52 4.75 1.08 6.5 0.73 4.63 0.27 2.8 0.04 1.34 3.81-3.84-3.27-0.05-5.96-0.37-5.1-0.71-4.24-0.99-3.38-1.24-2.52-1.4-1.68-1.5-0.87-1.43-0.28-1.13 0.05-0.82 0.63-1.08 1.67-1.51 2.75-1.7 3.73-1.72 4.64-1.63 5.55-1.49 3.15-0.67c1.18-0.26 2.6-1.51 3.16-2.79 0.57-1.29 0.08-2.12-1.11-1.87" fill="#151515"/>
 </g>
 <defs>
  <linearGradient id="Gradient_1" y2="381.89" gradientUnits="userSpaceOnUse" x2="553.7" y1="275.1" x1="533.25">
   <stop stop-color="#A5AAB8" offset="0"/>
   <stop stop-color="#959BAB" offset=".076"/>
   <stop stop-color="#788094" offset=".247"/>
   <stop stop-color="#666F85" offset=".394"/>
   <stop stop-color="#606980" offset=".5"/>
   <stop stop-color="#3B4665" offset=".5"/>
   <stop stop-color="#3D4867" offset=".759"/>
   <stop stop-color="#45506D" offset=".892"/>
   <stop stop-color="#525C77" offset=".996"/>
   <stop stop-color="#535D78" offset="1"/>
  </linearGradient>
  <linearGradient id="Gradient_2" y2="246.91" gradientUnits="userSpaceOnUse" x2="385.89" y1="153.65" x1="385.89">
   <stop stop-color="#55B6FF" offset="0"/>
   <stop stop-color="#AADBFF" offset="1"/>
  </linearGradient>
  <linearGradient id="Gradient_3" y2="266.21" gradientUnits="userSpaceOnUse" x2="229.62" y1="198.01" x1="229.62">
   <stop stop-color="#55B6FF" offset="0"/>
   <stop stop-color="#AADBFF" offset="1"/>
  </linearGradient>
 </defs>
 <metadata>
  <rdf:RDF>
   <cc:Work>
    <dc:format>image/svg+xml</dc:format>
    <dc:type rdf:resource="http://purl.org/dc/dcmitype/StillImage"/>
    <cc:license rdf:resource="http://creativecommons.org/licenses/publicdomain/"/>
    <dc:publisher>
     <cc:Agent rdf:about="http://openclipart.org/">
      <dc:title>Openclipart</dc:title>
     </cc:Agent>
    </dc:publisher>
   </cc:Work>
   <cc:License rdf:about="http://creativecommons.org/licenses/publicdomain/">
    <cc:permits rdf:resource="http://creativecommons.org/ns#Reproduction"/>
    <cc:permits rdf:resource="http://creativecommons.org/ns#Distribution"/>
    <cc:permits rdf:resource="http://creativecommons.org/ns#DerivativeWorks"/>
   </cc:License>
  </rdf:RDF>
 </metadata>
</svg>
