// Jest Snapshot v1, https://goo.gl/fbAQLP

exports[`<Button /> render default 1`] = `
<DocumentFragment>
  <button
    class="btn btn-default"
    type="button"
  >
    Test
  </button>
</DocumentFragment>
`;
